idstate,idaction
0,0
1,2
2,4
3,4
4,4
5,4
6,3
7,1
8,1
9,3
10,1
11,0
12,4
13,4
14,3
15,3
16,1
17,1
18,1
19,1
20,1
21,1
22,1
23,1
24,3
25,4
26,3
27,3
28,2
29,2
30,2
31,2
32,1
33,1
34,1
35,1
36,1
37,1
38,4
39,4
40,4
41,4
42,4
43,3
44,1
45,1
46,1
47,1
48,1
49,1
50,0
