idstate,idaction
0,0
1,0
2,2
3,3
4,4
5,4
6,3
7,1
8,1
9,3
10,1
11,1
12,4
13,4
14,3
15,4
16,4
17,3
18,3
19,1
20,1
21,1
22,1
23,1
24,1
25,4
26,4
27,4
28,4
29,4
30,4
31,3
32,3
33,2
34,1
35,1
36,1
37,1
38,4
39,4
40,4
41,4
42,4
43,4
44,4
45,3
46,1
47,1
48,1
49,1
50,1
