idstate,idaction
0,0
1,4
2,4
3,4
4,2
5,3
6,1
7,1
8,1
9,1
10,4
11,0
12,4
13,4
14,4
15,4
16,1
17,1
18,1
19,1
20,1
21,1
22,1
23,4
24,0
25,4
26,4
27,1
28,1
29,1
30,1
31,1
32,1
33,1
34,1
35,1
36,0
37,0
38,4
39,4
40,4
41,3
42,1
43,1
44,1
45,1
46,1
47,1
48,1
49,0
50,0
