idstate,idaction
0,0
1,4
2,4
3,4
4,4
5,4
6,1
7,1
8,1
9,1
10,1
11,0
12,4
13,4
14,4
15,4
16,4
17,4
18,2
19,1
20,1
21,1
22,1
23,1
24,0
25,4
26,4
27,4
28,4
29,4
30,4
31,3
32,1
33,1
34,1
35,1
36,0
37,0
38,4
39,4
40,4
41,4
42,4
43,3
44,1
45,1
46,1
47,1
48,0
49,0
50,0
