idstate,idaction
0,0
1,0
2,4
3,4
4,4
5,4
6,3
7,1
8,2
9,1
10,3
11,1
12,4
13,4
14,4
15,3
16,3
17,1
18,1
19,1
20,1
21,1
22,1
23,1
24,1
25,4
26,4
27,4
28,3
29,3
30,3
31,3
32,2
33,1
34,1
35,1
36,1
37,1
38,4
39,4
40,4
41,4
42,4
43,4
44,3
45,1
46,1
47,1
48,1
49,1
50,1
