idstate,idaction
0,0
1,0
2,0
3,3
4,4
5,4
6,1
7,1
8,1
9,1
10,1
11,1
12,4
13,4
14,4
15,4
16,4
17,4
18,4
19,3
20,2
21,1
22,1
23,1
24,1
25,4
26,4
27,4
28,4
29,4
30,4
31,4
32,4
33,3
34,1
35,1
36,1
37,1
38,4
39,4
40,4
41,4
42,4
43,4
44,4
45,3
46,1
47,1
48,1
49,1
50,1
