"Obj","Pi1","Pi2","Pi3","Pi4","Pi5","Pi6","Pi7","Pi8","Pi9","Pi10","Pi11","Pi12","Pi13","Pi14","Pi15","Pi16","Pi17","Pi18","Pi19","Pi20","levels"
50.0000002323836,1,1,1,1,1,1,1,1,1,1,1,1,1,1,1,1,1,1,1,1,51.0574974735556
50.000000258204,1,1,1,1,1,1,1,1,1,1,1,1,1,1,1,1,1,1,1,1,45.9517477262
50.0000002868933,1,1,1,1,1,1,1,1,1,1,1,1,1,1,1,1,1,1,1,1,41.35657295358
50.0000003187704,1,1,1,1,1,1,1,1,1,1,1,1,1,1,1,1,1,1,1,1,37.220915658222
50.0000003541893,1,1,1,1,1,1,1,1,1,1,1,1,1,1,1,1,1,1,1,1,33.4988240923998
50.0000003935436,1,1,1,1,1,1,1,1,1,1,1,1,1,1,1,1,1,1,1,1,30.1489416831598
50.0000004372707,1,1,1,1,1,1,1,1,1,1,1,1,1,1,1,1,1,1,1,1,27.1340475148439
50.0000004858564,1,1,1,1,1,1,1,1,1,1,1,1,1,1,1,1,1,1,1,1,24.4206427633595
50.0000005398404,1,1,1,1,1,1,1,1,1,1,1,1,1,1,1,1,1,1,1,1,21.9785784870235
50.0000005998226,1,1,1,1,1,1,1,1,1,1,1,1,1,1,1,1,1,1,1,1,19.7807206383212
50.0000006664696,1,1,1,1,1,1,1,1,1,1,1,1,1,1,1,1,1,1,1,1,17.8026485744891
50.0000007405218,1,1,1,1,1,1,1,1,1,1,1,1,1,1,1,1,1,1,1,1,16.0223837170401
50.000000822802,1,1,1,1,1,1,1,1,1,1,1,1,1,1,1,1,1,1,1,1,14.4201453453361
50.0000009142244,1,1,1,1,1,1,1,1,1,1,1,1,1,1,1,1,1,1,1,1,12.9781308108025
50.0000010158049,1,1,1,1,1,1,1,1,1,1,1,1,1,1,1,1,1,1,1,1,11.6803177297223
50.0000011286721,1,1,1,1,1,1,1,1,1,1,1,1,1,1,1,1,1,1,1,1,10.51228595675
50.0000012540801,1,1,1,1,1,1,1,1,1,1,1,1,1,1,1,1,1,1,1,1,9.46105736107504
50.0000013934224,1,1,1,1,1,1,1,1,1,1,1,1,1,1,1,1,1,1,1,1,8.51495162496754
50.0000015482471,1,1,1,1,1,1,1,1,1,1,1,1,1,1,1,1,1,1,1,1,7.66345646247078
50.0000017202745,1,1,1,1,1,1,1,1,1,1,1,1,1,1,1,1,1,1,1,1,6.89711081622371
50.0000019114161,1,1,1,1,1,1,1,1,1,1,1,1,1,1,1,1,1,1,1,1,6.20739973460133
50.0000021237957,1,1,1,1,1,1,1,1,1,1,1,1,1,1,1,1,1,1,1,1,5.5866597611412
50.000002359773,1,1,1,1,1,1,1,1,1,1,1,1,1,1,1,1,1,1,1,1,5.02799378502708
50.00000262197,1,1,1,1,1,1,1,1,1,1,1,1,1,1,1,1,1,1,1,1,4.52519440652437
50.0000029133,1,1,1,1,1,1,1,1,1,1,1,1,1,1,1,1,1,1,1,1,4.07267496587194
50.000003237,1,1,1,1,1,1,1,1,1,1,1,1,1,1,1,1,1,1,1,1,3.66540746928474
50.0000035966667,1,1,1,1,1,1,1,1,1,1,1,1,1,1,1,1,1,1,1,1,3.29886672235627
50.0000039962963,1,1,1,1,1,1,1,1,1,1,1,1,1,1,1,1,1,1,1,1,2.96898005012064
50.0000044403292,1,1,1,1,1,1,1,1,1,1,1,1,1,1,1,1,1,1,1,1,2.67208204510858
50.0000049336992,1,1,1,1,1,1,1,1,1,1,1,1,1,1,1,1,1,1,1,1,2.40487384059772
50.0000054818879,1,1,1,1,1,1,1,1,1,1,1,1,1,1,1,1,1,1,1,1,2.16438645653795
50.0000060909866,1,1,1,1,1,1,1,1,1,1,1,1,1,1,1,1,1,1,1,1,1.94794781088415
50.0000067677629,1,1,1,1,1,1,1,1,1,1,1,1,1,1,1,1,1,1,1,1,1.75315302979574
50.0000075197365,1,1,1,1,1,1,1,1,1,1,1,1,1,1,1,1,1,1,1,1,1.57783772681616
50.0000083552628,1,1,1,1,1,1,1,1,1,1,1,1,1,1,1,1,1,1,1,1,1.42005395413455
50.0000092836253,1,1,1,1,1,1,1,1,1,1,1,1,1,1,1,1,1,1,1,1,1.27804855872109
50.0000103151393,1,1,1,1,1,1,1,1,1,1,1,1,1,1,1,1,1,1,1,1,1.15024370284898
50.0000114612659,1,1,1,1,1,1,1,1,1,1,1,1,1,1,1,1,1,1,1,1,1.03521933256409
50.0000127347398,1,1,1,1,1,1,1,1,1,1,1,1,1,1,1,1,1,1,1,1,0.931697399307677
50.0000141497109,1,1,1,1,1,1,1,1,1,1,1,1,1,1,1,1,1,1,1,1,0.838527659376909
50.000015721901,1,1,1,1,1,1,1,1,1,1,1,1,1,1,1,1,1,1,1,1,0.754674893439218
50.0000174687789,1,1,1,1,1,1,1,1,1,1,1,1,1,1,1,1,1,1,1,1,0.679207404095296
50.0000194097544,1,1,1,1,1,1,1,1,1,1,1,1,1,1,1,1,1,1,1,1,0.611286663685767
50.0000215663937,1,1,1,1,1,1,1,1,1,1,1,1,1,1,1,1,1,1,1,1,0.55015799731719
50.0000239626597,1,1,1,1,1,1,1,1,1,1,1,1,1,1,1,1,1,1,1,1,0.495142197585471
50.0000266251775,1,1,1,1,1,1,1,1,1,1,1,1,1,1,1,1,1,1,1,1,0.445627977826924
50.0048999733685,1,1,1,1,1,1,1,1,1,1,1,1,1,1,1,1,1,1,1,2,0.401065180044232
50.0297857859862,1,1,1,1,1,1,1,1,1,1,1,1,1,1,1,1,1,1,1,2,0.360958662039808
50.0533632458614,1,1,1,1,1,1,1,1,1,1,1,1,1,1,1,1,1,1,1,2,0.324862795835828
50.0764618989915,1,1,1,1,1,1,1,1,1,1,1,1,1,1,1,1,1,1,1,2,0.292376516252245
50.1115895835479,1,1,1,1,1,1,1,1,1,1,1,1,1,1,1,1,1,1,1,2,0.26313886462702
50.2087227989829,1,1,1,1,1,1,1,1,1,1,1,1,1,1,1,1,1,1,2,2,0.236824978164318
50.3798888027858,1,1,1,1,1,1,1,1,1,1,1,1,1,1,1,1,1,1,2,2,0.213142480347887
50.6235456374467,1,1,1,1,1,1,1,1,1,1,1,1,1,1,1,1,1,2,2,2,0.191828232313098
50.9166689311643,1,1,1,1,1,1,1,1,1,1,1,1,1,1,1,1,2,2,2,2,0.172645409081788
51.2592470507345,1,1,1,1,1,1,1,1,1,1,1,1,1,1,1,2,2,2,2,2,0.155380868173609
51.6615649547713,1,1,1,1,1,1,1,1,1,1,1,1,1,1,1,2,2,2,2,2,0.139842781356248
52.1705374214971,1,1,1,1,1,1,1,1,1,1,1,1,1,1,2,2,2,2,2,2,0.125858503220624
52.7262078651552,1,1,1,1,1,1,1,1,1,1,1,1,1,2,2,2,2,2,2,2,0.113272652898561
53.3509595859038,1,1,1,1,1,1,1,1,1,1,1,1,1,2,2,2,2,2,2,2,0.101945387608705
54.0936613438189,1,1,1,1,1,1,1,1,1,1,1,1,2,2,2,2,2,2,2,2,0.0917508488478346
54.8794533959858,1,1,1,1,1,1,1,1,1,1,1,1,2,2,2,2,2,2,2,2,0.0825757639630511
55.8214825741927,1,1,1,1,1,1,1,1,1,1,1,2,2,2,2,2,2,2,2,2,0.074318187566746
56.8159994772662,1,1,1,1,1,1,1,1,1,1,1,2,2,2,2,2,2,2,2,2,0.0668863688100714
57.9459942692108,1,1,1,1,1,1,1,1,1,1,2,2,2,2,2,2,2,2,2,2,0.0601977319290643
59.1929503679994,1,1,1,1,1,1,1,1,1,1,2,2,2,2,2,2,2,2,2,2,0.0541779587361578
60.5160675701639,1,1,1,1,1,1,1,1,1,1,2,2,2,2,2,2,2,2,2,2,0.0487601628625421
62.0132669402094,1,1,1,1,1,1,1,1,1,2,2,2,2,2,2,2,2,2,2,2,0.0438841465762878
63.6429957080471,1,1,1,1,1,1,1,1,1,2,2,2,2,2,2,2,2,2,2,2,0.0394957319186591
65.3732358592502,1,1,1,1,1,1,1,1,1,2,2,2,2,2,2,2,2,2,2,2,0.0355461587267932
67.2214153032316,1,1,1,1,1,1,1,1,1,2,2,2,2,2,2,2,2,2,2,2,0.0319915428541138
69.252541774546,1,1,1,1,1,1,1,1,2,2,2,2,2,2,2,2,2,2,2,2,0.0287923885687025
71.4499047214716,1,1,1,1,1,1,1,1,2,2,2,2,2,2,2,2,2,2,2,2,0.0259131497118322
73.7735662391276,1,1,1,1,1,1,1,1,2,2,2,2,2,2,2,2,2,2,2,2,0.023321834740649
76.2292770636204,1,1,1,1,1,1,1,1,2,2,2,2,2,2,2,2,2,2,2,2,0.0209896512665841
78.8209852290725,1,1,1,1,1,1,1,1,2,2,2,2,2,2,2,2,2,2,2,2,0.0188906861399257
81.5508852742413,1,1,1,1,1,1,1,1,2,2,2,2,2,2,2,2,2,2,2,2,0.0170016175259331
84.4200854752147,1,1,1,1,1,1,1,1,2,2,2,2,2,2,2,2,2,2,2,2,0.0153014557733398
87.4407200349898,1,1,1,1,1,1,1,2,2,2,2,2,2,2,2,2,2,2,2,2,0.0137713101960058
90.6245721305867,1,1,1,1,1,1,1,2,2,2,2,2,2,2,2,2,2,2,2,2,0.0123941791764052
93.9214152829855,1,1,1,1,1,1,1,2,2,2,2,2,2,2,2,2,2,2,2,2,0.0111547612587647
97.3204741571443,1,1,1,1,1,1,1,2,2,2,2,2,2,2,2,2,2,2,2,2,0.0100392851328882
100.808050802559,1,1,1,1,1,1,1,2,2,2,2,2,2,2,2,2,2,2,2,2,0.00903535661959942
104.367609792303,1,1,1,1,1,1,1,2,2,2,2,2,2,2,2,2,2,2,2,2,0.00813182095763948
107.980022207404,1,1,1,1,1,1,1,2,2,2,2,2,2,2,2,2,2,2,2,2,0.00731863886187553
111.623984190605,1,1,1,1,1,1,1,2,2,2,2,2,2,2,2,2,2,2,2,2,0.00658677497568798
115.276602043487,1,1,1,1,1,1,1,2,2,2,2,2,2,2,2,2,2,2,2,2,0.00592809747811918
118.91411044575,1,1,1,1,1,1,1,2,2,2,2,2,2,2,2,2,2,2,2,2,0.00533528773030726
122.512669175036,1,1,1,1,1,1,1,2,2,2,2,2,2,2,2,2,2,2,2,2,0.00480175895727654
126.049171548763,1,1,1,1,1,1,1,2,2,2,2,2,2,2,2,2,2,2,2,2,0.00432158306154888
129.501997030462,1,1,1,1,1,1,1,2,2,2,2,2,2,2,2,2,2,2,2,2,0.003889424755394
132.851650361092,1,1,1,1,1,1,1,2,2,2,2,2,2,2,2,2,2,2,2,2,0.0035004822798546
136.081247073078,1,1,1,1,1,1,1,2,2,2,2,2,2,2,2,2,2,2,2,2,0.00315043405186914
139.176826020822,1,1,1,1,1,1,1,2,2,2,2,2,2,2,2,2,2,2,2,2,0.00283539064668222
142.127489473274,1,1,1,1,1,1,1,2,2,2,2,2,2,2,2,2,2,2,2,2,0.002551851582014
144.925387337702,1,1,1,1,1,1,1,2,2,2,2,2,2,2,2,2,2,2,2,2,0.0022966664238126
147.565572701754,1,1,1,1,1,1,1,2,2,2,2,2,2,2,2,2,2,2,2,2,0.00206699978143134
150.045760964518,1,1,1,1,1,1,1,2,2,2,2,2,2,2,2,2,2,2,2,2,0.00186029980328821
152.366025220599,1,1,1,1,1,1,1,2,2,2,2,2,2,2,2,2,2,2,2,2,0.00167426982295939
154.528457588746,1,1,1,1,1,1,1,2,2,2,2,2,2,2,2,2,2,2,2,2,0.00150684284066345
156.536821230355,1,1,1,1,1,1,1,2,2,2,2,2,2,2,2,2,2,2,2,2,0.0013561585565971
158.396212076421,1,1,1,1,1,1,1,2,2,2,2,2,2,2,2,2,2,2,2,2,0.00122054270093739
160.112743648669,1,1,1,1,1,1,1,2,2,2,2,2,2,2,2,2,2,2,2,2,0.00109848843084365
161.693263365855,1,1,1,1,1,1,1,2,2,2,2,2,2,2,2,2,2,2,2,2,0.000988639587759288
163.145104635132,1,1,1,1,1,1,1,2,2,2,2,2,2,2,2,2,2,2,2,2,0.000889775628983359
164.475875903646,1,1,1,1,1,1,1,2,2,2,2,2,2,2,2,2,2,2,2,2,0.000800798066085024
165.693285621433,1,1,1,1,1,1,1,2,2,2,2,2,2,2,2,2,2,2,2,2,0.000720718259476521
166.805000610776,1,1,1,1,1,1,1,2,2,2,2,2,2,2,2,2,2,2,2,2,0.000648646433528869
167.818534492993,1,1,1,1,1,1,1,2,2,2,2,2,2,2,2,2,2,2,2,2,0.000583781790175982
168.741162438821,1,1,1,1,1,1,1,2,2,2,2,2,2,2,2,2,2,2,2,2,0.000525403611158384
169.579858449023,1,1,1,1,1,1,1,2,2,2,2,2,2,2,2,2,2,2,2,2,0.000472863250042545
170.341251528032,1,1,1,1,1,1,1,2,2,2,2,2,2,2,2,2,2,2,2,2,0.000425576925038291
171.031597400429,1,1,1,1,1,1,1,2,2,2,2,2,2,2,2,2,2,2,2,2,0.000383019232534462
171.656762775513,1,1,1,1,1,1,1,2,2,2,2,2,2,2,2,2,2,2,2,2,0.000344717309281016
172.222219545237,1,1,1,1,1,1,1,2,2,2,2,2,2,2,2,2,2,2,2,2,0.000310245578352914
172.733046676344,1,1,1,1,1,1,1,2,2,2,2,2,2,2,2,2,2,2,2,2,0.000279221020517623
173.193937910521,1,1,1,1,1,1,1,2,2,2,2,2,2,2,2,2,2,2,2,2,0.000251298918465861
173.609213706779,1,1,1,1,1,1,1,2,2,2,2,2,2,2,2,2,2,2,2,2,0.000226169026619274
173.982836143599,1,1,1,1,1,1,1,2,2,2,2,2,2,2,2,2,2,2,2,2,0.000203552123957347
174.318425743776,1,1,1,1,1,1,1,2,2,2,2,2,2,2,2,2,2,2,2,2,0.000183196911561612
174.619279393925,1,1,1,1,1,1,1,2,2,2,2,2,2,2,2,2,2,2,2,2,0.000164877220405451
174.888388706105,1,1,1,1,1,1,1,2,2,2,2,2,2,2,2,2,2,2,2,2,0.000148389498364906
175.128458314405,1,1,1,1,1,1,1,2,2,2,2,2,2,2,2,2,2,2,2,2,0.000133550548528415
175.341923718383,1,1,1,1,1,1,1,2,2,2,2,2,2,2,2,2,2,2,2,2,0.000120195493675574
175.530968381622,1,1,1,1,1,1,1,2,2,2,2,2,2,2,2,2,2,2,2,2,0.000108175944308016
175.69753987059,1,1,1,1,1,1,1,2,2,2,2,2,2,2,2,2,2,2,2,2,9.73583498772148e-05
175.843364879807,1,1,1,1,1,1,1,2,2,2,2,2,2,2,2,2,2,2,2,2,8.76225148894933e-05
175.969963036506,1,1,1,1,1,1,1,2,2,2,2,2,2,2,2,2,2,2,2,2,7.8860263400544e-05
176.078659414051,1,1,1,1,1,1,1,2,2,2,2,2,2,2,2,2,2,2,2,2,7.09742370604896e-05
176.170595710381,1,1,1,1,1,1,1,2,2,2,2,2,2,2,2,2,2,2,2,2,6.38768133544407e-05
176.246740067312,1,1,1,1,1,1,1,2,2,2,2,2,2,2,2,2,2,2,2,2,5.74891320189966e-05
176.307895520429,1,1,1,1,1,1,1,2,2,2,2,2,2,2,2,2,2,2,2,2,5.17402188170969e-05
176.354707078521,1,1,1,1,1,1,1,2,2,2,2,2,2,2,2,2,2,2,2,2,4.65661969353872e-05
176.387667437582,1,1,1,1,1,1,1,2,2,2,2,2,2,2,2,2,2,2,2,2,4.19095772418485e-05
176.407121338218,1,1,1,1,1,1,1,2,2,2,2,2,2,2,2,2,2,2,2,2,3.77186195176637e-05
176.41326857813,1,1,1,1,1,1,1,2,2,2,2,2,2,2,2,2,2,2,2,2,3.39467575658973e-05
176.406165694484,1,1,1,1,1,1,1,2,2,2,2,2,2,2,2,2,2,2,2,2,3.05520818093076e-05
176.385726336133,1,1,1,1,1,1,1,2,2,2,2,2,2,2,2,2,2,2,2,2,2.74968736283768e-05
176.351720354845,1,1,1,1,1,1,1,2,2,2,2,2,2,2,2,2,2,2,2,2,2.47471862655391e-05
176.303771661409,1,1,1,1,1,1,1,2,2,2,2,2,2,2,2,2,2,2,2,2,2.22724676389852e-05
176.241354921395,1,1,1,1,1,1,1,2,2,2,2,2,2,2,2,2,2,2,2,2,2.00452208750867e-05
176.163791214211,1,1,1,1,1,1,1,2,2,2,2,2,2,2,2,2,2,2,2,2,1.8040698787578e-05
176.07024286051,1,1,1,1,1,1,1,2,2,2,2,2,2,2,2,2,2,2,2,2,1.62366289088202e-05
175.959707757747,1,1,1,1,1,1,1,2,2,2,2,2,2,2,2,2,2,2,2,2,1.46129660179382e-05
175.831013788323,1,1,1,1,1,1,1,2,2,2,2,2,2,2,2,2,2,2,2,2,1.31516694161444e-05
175.682814243899,1,1,1,1,1,1,1,2,2,2,2,2,2,2,2,2,2,2,2,2,1.18365024745299e-05
175.513585865648,1,1,1,1,1,1,1,2,2,2,2,2,2,2,2,2,2,2,2,2,1.0652852227077e-05
175.321632270708,1,1,1,1,1,1,1,2,2,2,2,2,2,2,2,2,2,2,2,2,9.58756700436926e-06
175.105097724083,1,1,1,1,1,1,1,2,2,2,2,2,2,2,2,2,2,2,2,2,8.62881030393233e-06
174.862000513022,1,1,1,1,1,1,1,2,2,2,2,2,2,2,2,2,2,2,2,2,7.7659292735391e-06
174.590304508082,1,1,1,1,1,1,1,2,2,2,2,2,2,2,2,2,2,2,2,2,6.98933634618519e-06
174.288068415038,1,1,1,1,1,1,1,2,2,2,2,2,2,2,2,2,2,2,2,2,6.29040271156667e-06
173.953777100623,1,1,1,1,1,1,1,2,2,2,2,2,2,2,2,2,2,2,2,2,5.66136244041e-06
173.587116097503,1,1,1,1,1,1,1,2,2,2,2,2,2,2,2,2,2,2,2,2,5.095226196369e-06
173.19206195896,1,1,1,1,1,1,1,1,2,2,2,2,2,2,2,2,2,2,2,2,4.5857035767321e-06
172.774818915153,1,1,1,1,1,1,1,1,2,2,2,2,2,2,2,2,2,2,2,2,4.12713321905889e-06
172.311781641602,1,1,1,1,1,1,1,1,2,2,2,2,2,2,2,2,2,2,2,2,3.714419897153e-06
171.799001929869,1,1,1,1,1,1,1,1,2,2,2,2,2,2,2,2,2,2,2,2,3.3429779074377e-06
171.232528068025,1,1,1,1,1,1,1,1,2,2,2,2,2,2,2,2,2,2,2,2,3.00868011669393e-06
170.608663955845,1,1,1,1,1,1,1,1,2,2,2,2,2,2,2,2,2,2,2,2,2.70781210502454e-06
169.924444850086,1,1,1,1,1,1,1,1,2,2,2,2,2,2,2,2,2,2,2,2,2.43703089452209e-06
169.178704902019,1,1,1,1,1,1,1,1,2,2,2,2,2,2,2,2,2,2,2,2,2.19332780506988e-06
168.37411267289,1,1,1,1,1,1,1,1,2,2,2,2,2,2,2,2,2,2,2,2,1.97399502456289e-06
167.529518602165,1,1,1,1,1,1,1,1,1,2,2,2,2,2,2,2,2,2,2,2,1.7765955221066e-06
166.636808006578,1,1,1,1,1,1,1,1,1,2,2,2,2,2,2,2,2,2,2,2,1.59893596989594e-06
165.663135452423,1,1,1,1,1,1,1,1,1,2,2,2,2,2,2,2,2,2,2,2,1.43904237290635e-06
164.608026853762,1,1,1,1,1,1,1,1,1,2,2,2,2,2,2,2,2,2,2,2,1.29513813561571e-06
163.476079233791,1,1,1,1,1,1,1,1,1,2,2,2,2,2,2,2,2,2,2,2,1.16562432205414e-06
162.281011924542,1,1,1,1,1,1,1,1,1,1,2,2,2,2,2,2,2,2,2,2,1.04906188984873e-06
161.081450498208,1,1,1,1,1,1,1,1,1,1,2,2,2,2,2,2,2,2,2,2,9.44155700863854e-07
159.79444767356,1,1,1,1,1,1,1,1,1,1,2,2,2,2,2,2,2,2,2,2,8.49740130777469e-07
158.431419551666,1,1,1,1,1,1,1,1,1,1,2,2,2,2,2,2,2,2,2,2,7.64766117699722e-07
157.01678852629,1,1,1,1,1,1,1,1,1,1,2,2,2,2,2,2,2,2,2,2,6.8828950592975e-07
155.628316132717,1,1,1,1,1,1,1,1,1,1,1,2,2,2,2,2,2,2,2,2,6.19460555336775e-07
154.197639641414,1,1,1,1,1,1,1,1,1,1,1,2,2,2,2,2,2,2,2,2,5.57514499803097e-07
152.737559197003,1,1,1,1,1,1,1,1,1,1,1,2,2,2,2,2,2,2,2,2,5.01763049822788e-07
151.325218936577,1,1,1,1,1,1,1,1,1,1,1,1,2,2,2,2,2,2,2,2,4.51586744840509e-07
149.992816695268,1,1,1,1,1,1,1,1,1,1,1,1,2,2,2,2,2,2,2,2,4.06428070356458e-07
148.699697343765,1,1,1,1,1,1,1,1,1,1,1,1,2,2,2,2,2,2,2,2,3.65785263320812e-07
147.562907337362,1,1,1,1,1,1,1,1,1,1,1,1,1,2,2,2,2,2,2,2,3.29206736988731e-07
146.625436242599,1,1,1,1,1,1,1,1,1,1,1,1,1,2,2,2,2,2,2,2,2.96286063289858e-07
145.875279607968,1,1,1,1,1,1,1,1,1,1,1,1,1,2,2,2,2,2,2,2,2.66657456960872e-07
145.525069118225,1,1,1,1,1,1,1,1,1,1,1,1,1,1,2,2,2,2,2,2,2.39991711264785e-07
145.513352995411,1,1,1,1,1,1,1,1,1,1,1,1,1,1,2,2,2,2,2,2,2.15992540138306e-07
146.043777251966,1,1,1,1,1,1,1,1,1,1,1,1,1,1,1,2,2,2,2,2,1.94393286124476e-07
147.178788537994,1,1,1,1,1,1,1,1,1,1,1,1,1,1,1,2,2,2,2,2,1.74953957512028e-07
149.10929430895,1,1,1,1,1,1,1,1,1,1,1,1,1,1,1,1,2,2,2,2,1.57458561760825e-07
151.933519710421,1,1,1,1,1,1,1,1,1,1,1,1,1,1,1,1,2,2,2,2,1.41712705584743e-07
155.995793133836,1,1,1,1,1,1,1,1,1,1,1,1,1,1,1,1,1,2,2,2,1.27541435026269e-07
161.368063059775,1,1,1,1,1,1,1,1,1,1,1,1,1,1,1,1,1,1,2,2,1.14787291523642e-07
168.389409958214,1,1,1,1,1,1,1,1,1,1,1,1,1,1,1,1,1,1,1,2,1.03308562371278e-07
177.610418432976,1,1,1,1,1,1,1,1,1,1,1,1,1,1,1,1,1,1,1,2,0
