"Obj","Pi1","Pi2","Pi3","Pi4","Pi5","Pi6","Pi7","Pi8","Pi9","Pi10","Pi11","Pi12","Pi13","Pi14","Pi15","Pi16","Pi17","Pi18","Pi19","Pi20","Pi21","Pi22","Pi23","Pi24","Pi25","Pi26","Pi27","Pi28","Pi29","Pi30","Pi31","Pi32","Pi33","Pi34","Pi35","Pi36","Pi37","Pi38","Pi39","Pi40","Pi41","Pi42","Pi43","Pi44","Pi45","Pi46","Pi47","Pi48","Pi49","Pi50","Pi51","levels"
-11923.5756569102,4,4,1,1,1,1,2,2,3,5,5,5,5,5,5,5,5,5,5,5,5,1,1,1,1,1,1,1,1,1,1,1,1,1,1,1,1,1,1,1,5,5,5,5,5,2,2,1,1,1,1,51.548887426916
-11922.9407263022,4,4,1,1,1,1,2,2,3,5,5,5,5,5,5,5,5,5,5,5,5,1,1,1,1,1,1,1,1,1,1,1,1,1,1,1,1,1,1,1,5,5,5,5,5,2,2,1,1,1,1,46.3939986842244
-11922.246641123,4,4,1,1,1,1,2,2,3,5,5,5,5,5,5,5,5,5,5,5,5,1,1,1,1,1,1,1,1,1,1,1,1,1,1,1,1,1,1,1,5,5,5,5,5,2,2,1,1,1,1,41.7545988158019
-11921.4880927408,4,4,1,1,1,1,2,2,3,5,5,5,5,5,5,5,5,5,5,5,5,1,1,1,1,1,1,1,1,1,1,1,1,1,1,1,1,1,1,1,5,5,5,5,5,2,2,1,1,1,1,37.5791389342217
-11920.6593235115,4,4,1,1,1,1,2,2,3,5,5,5,5,5,5,5,5,5,5,5,5,1,1,1,1,1,1,1,1,1,1,1,1,1,1,1,1,1,1,1,5,5,5,5,5,2,2,1,1,1,1,33.8212250407996
-11919.7540920798,4,4,1,1,1,1,2,2,3,5,5,5,5,5,5,5,5,5,5,5,5,1,1,1,1,1,1,1,1,1,1,1,1,1,1,1,1,1,1,1,5,5,5,5,5,2,2,1,1,1,1,30.4391025367196
-11918.7656363898,4,4,1,1,1,1,2,2,3,5,5,5,5,5,5,5,5,5,5,5,5,1,1,1,1,1,1,1,1,1,1,1,1,1,1,1,1,1,1,1,5,5,5,5,5,2,2,1,1,1,1,27.3951922830477
-11917.686634398,4,4,1,1,1,1,2,2,3,5,5,5,5,5,5,5,5,5,5,5,5,1,1,1,1,1,1,1,1,1,1,1,1,1,1,1,1,1,1,1,5,5,5,5,5,2,2,1,1,1,1,24.6556730547429
-11916.509162523,4,4,1,1,1,1,2,2,3,5,5,5,5,5,5,5,5,5,5,5,5,1,1,1,1,1,1,1,1,1,1,1,1,1,1,1,1,1,1,1,5,5,5,5,5,2,2,1,1,1,1,22.1901057492686
-11915.2246518932,4,4,1,1,1,1,2,2,3,5,5,5,5,5,5,5,5,5,5,5,5,1,1,1,1,1,1,1,1,1,1,1,1,1,1,1,1,1,1,1,5,5,5,5,5,2,2,1,1,1,1,19.9710951743417
-11913.8238424715,4,4,1,1,1,1,2,2,3,5,5,5,5,5,5,5,5,5,5,5,5,1,1,1,1,1,1,1,1,1,1,1,1,1,1,1,1,1,1,1,5,5,5,5,5,2,2,1,1,1,1,17.9739856569076
-11912.2967351521,4,4,1,1,1,1,2,2,3,5,5,5,5,5,5,5,5,5,5,5,5,1,1,1,1,1,1,1,1,1,1,1,1,1,1,1,1,1,1,1,5,5,5,5,5,2,2,1,1,1,1,16.1765870912168
-11910.6325419382,4,4,1,1,1,1,2,2,3,5,5,5,5,5,5,5,5,5,5,5,5,1,1,1,1,1,1,1,1,1,1,1,1,1,1,1,1,1,1,1,5,5,5,5,5,2,2,1,1,1,1,14.5589283820951
-11908.8196343381,4,4,1,1,1,1,2,2,3,5,5,5,5,5,5,5,5,5,5,5,5,1,1,1,1,1,1,1,1,1,1,1,1,1,1,1,1,1,1,1,5,5,5,5,5,2,2,1,1,1,1,13.1030355438856
-11906.8454901548,4,4,1,1,1,1,2,2,3,5,5,5,5,5,5,5,5,5,5,5,5,1,1,1,1,1,1,1,1,1,1,1,1,1,1,1,1,1,1,1,5,5,5,5,5,2,2,1,1,1,1,11.7927319894971
-11904.6966388982,4,4,1,1,1,1,2,2,3,5,5,5,5,5,5,5,5,5,5,5,5,1,1,1,1,1,1,1,1,1,1,1,1,1,1,1,1,1,1,1,5,5,5,5,5,2,2,1,1,1,1,10.6134587905474
-11902.3586061277,4,4,1,1,1,1,2,2,3,5,5,5,5,5,5,5,5,5,5,5,5,1,1,1,1,1,1,1,1,1,1,1,1,1,1,1,1,1,1,1,5,5,5,5,5,2,2,1,1,1,1,9.55211291149261
-11899.8158571231,4,4,1,1,1,1,2,2,3,5,5,5,5,5,5,5,5,5,5,5,5,1,1,1,1,1,1,1,1,1,1,1,1,1,1,1,1,1,1,1,5,5,5,5,5,2,2,1,1,1,1,8.59690162034335
-11897.0517403937,4,4,1,1,1,1,2,2,3,5,5,5,5,5,5,5,5,5,5,5,5,1,1,1,1,1,1,1,1,1,1,1,1,1,1,1,1,1,1,1,5,5,5,5,5,2,2,1,1,1,1,7.73721145830902
-11894.0484316683,4,4,1,1,1,1,2,2,3,5,5,5,5,5,5,5,5,5,5,5,5,1,1,1,1,1,1,1,1,1,1,1,1,1,1,1,1,1,1,1,5,5,5,5,5,2,2,1,1,1,1,6.96349031247812
-11890.786879162,4,4,1,1,1,1,2,2,3,5,5,5,5,5,5,5,5,5,5,5,5,1,1,1,1,1,1,1,1,1,1,1,1,1,1,1,1,1,1,1,5,5,5,5,5,2,2,1,1,1,1,6.26714128123031
-11887.2467510855,4,4,1,1,1,1,2,2,3,5,5,5,5,5,5,5,5,5,5,5,5,1,1,1,1,1,1,1,1,1,1,1,1,1,1,1,1,1,1,1,5,5,5,5,5,2,2,1,1,1,1,5.64042715310728
-11883.406386547,4,4,1,1,1,1,2,2,3,5,5,5,5,5,5,5,5,5,5,5,5,1,1,1,1,1,1,1,1,1,1,1,1,1,1,1,1,1,1,1,5,5,5,5,5,2,2,1,1,1,1,5.07638443779655
-11879.2427511591,4,4,1,1,1,1,2,2,3,5,5,5,5,5,5,5,5,5,5,5,5,1,1,1,1,1,1,1,1,1,1,1,1,1,1,1,1,1,1,1,5,5,5,5,5,2,2,1,1,1,1,4.56874599401689
-11874.73139873,4,4,1,1,1,1,2,2,3,5,5,5,5,5,5,5,5,5,5,5,5,1,1,1,1,1,1,1,1,1,1,1,1,1,1,1,1,1,1,1,5,5,5,5,5,2,2,1,1,1,1,4.1118713946152
-11869.8464402706,4,4,1,1,1,1,2,2,3,5,5,5,5,5,5,5,5,5,5,5,5,1,1,1,1,1,1,1,1,1,1,1,1,1,1,1,1,1,1,1,5,5,5,5,5,2,2,1,1,1,1,3.70068425515368
-11864.5605210248,4,4,1,1,1,1,2,2,3,5,5,5,5,5,5,5,5,5,5,5,5,1,1,1,1,1,1,1,1,1,1,1,1,1,1,1,1,1,1,1,5,5,5,5,5,2,2,1,1,1,1,3.33061582963832
-11858.8448052295,4,4,1,1,1,1,2,2,3,5,5,5,5,5,5,5,5,5,5,5,5,1,1,1,1,1,1,1,1,1,1,1,1,1,1,1,1,1,1,1,5,5,5,5,5,2,2,1,1,1,1,2.99755424667448
-11852.668966873,4,4,1,1,1,1,2,2,3,5,5,5,5,5,5,5,5,5,5,5,5,1,1,1,1,1,1,1,1,1,1,1,1,1,1,1,1,1,1,1,5,5,5,5,5,2,2,1,1,1,1,2.69779882200704
-11846.0011831487,4,4,1,1,1,1,2,2,3,5,5,5,5,5,5,5,5,5,5,5,5,1,1,1,1,1,1,1,1,1,1,1,1,1,1,1,1,1,1,1,5,5,5,5,5,2,2,1,1,1,1,2.42801893980633
-11838.8081260589,4,4,1,1,1,1,2,2,3,5,5,5,5,5,5,5,5,5,5,5,5,1,1,1,1,1,1,1,1,1,1,1,1,1,1,1,1,1,1,1,5,5,5,5,5,2,2,1,1,1,1,2.1852170458257
-11831.0549472338,4,4,1,1,1,1,2,2,3,5,5,5,5,5,5,5,5,5,5,5,5,1,1,1,1,1,1,1,1,1,1,1,1,1,1,1,1,1,1,1,5,5,5,5,5,2,2,1,1,1,1,1.96669534124313
-11822.7052517876,4,4,1,1,1,1,2,2,3,5,5,5,5,5,5,5,5,5,5,5,5,1,1,1,1,1,1,1,1,1,1,1,1,1,1,1,1,1,1,1,5,5,5,5,5,2,2,1,1,1,1,1.77002580711882
-11813.7210589551,4,4,1,1,1,1,2,2,3,5,5,5,5,5,5,5,5,5,5,5,5,1,1,1,1,1,1,1,1,1,1,1,1,1,1,1,1,1,1,1,5,5,5,5,5,2,2,1,1,1,1,1.59302322640693
-11804.0627502106,4,4,1,1,1,1,2,2,3,5,5,5,5,5,5,5,5,5,5,5,5,1,1,1,1,1,1,1,1,1,1,1,1,1,1,1,1,1,1,1,5,5,5,5,5,2,2,1,1,1,1,1.43372090376624
-11793.6890099366,4,4,1,1,1,1,2,2,3,5,5,5,5,5,5,5,5,5,5,5,5,1,1,1,1,1,1,1,1,1,1,1,1,1,1,1,1,1,1,1,5,5,5,5,5,2,2,1,1,1,1,1.29034881338962
-11782.5567722228,4,4,1,1,1,1,2,2,3,5,5,5,5,5,5,5,5,5,5,5,5,1,1,1,1,1,1,1,1,1,1,1,1,1,1,1,1,1,1,1,5,5,5,5,5,2,2,1,1,1,1,1.16131393205066
-11770.6212102332,4,4,1,1,1,1,2,2,3,5,5,5,5,5,5,5,5,5,5,5,5,1,1,1,1,1,1,1,1,1,1,1,1,1,1,1,1,1,1,1,5,5,5,5,5,2,2,1,1,1,1,1.04518253884559
-11757.835869921,4,4,1,1,1,1,2,2,3,5,5,5,5,5,5,5,5,5,5,5,5,1,1,1,1,1,1,1,1,1,1,1,1,1,1,1,1,1,1,1,5,5,5,5,5,2,2,1,1,1,1,0.940664284961031
-11744.1532166197,4,4,5,1,1,1,2,2,3,5,5,5,5,5,5,5,5,5,5,5,5,1,1,1,1,1,1,1,1,1,1,1,1,1,1,1,1,1,1,1,5,5,5,5,5,2,2,1,1,1,1,0.846597856464928
-11729.5262148606,4,4,5,1,1,1,2,2,3,5,5,5,5,5,5,5,5,5,5,5,5,1,1,1,1,1,1,1,1,1,1,1,1,1,1,1,1,1,1,1,5,5,5,5,5,2,2,1,1,1,1,0.761938070818435
-11713.9121145475,4,4,5,1,1,1,2,2,3,5,5,5,5,5,5,5,5,5,5,5,5,1,1,1,1,1,1,1,1,1,1,1,1,1,1,1,1,1,1,1,5,5,5,5,5,2,2,1,1,1,1,0.685744263736592
-11697.2799477993,4,4,5,1,1,1,2,2,3,5,5,5,5,5,5,5,5,5,5,5,5,1,1,1,1,1,1,1,1,1,1,1,5,1,1,1,1,1,1,1,5,5,5,5,5,2,2,1,1,1,1,0.617169837362933
-11679.6215707844,4,4,5,1,1,1,2,2,3,5,5,5,5,5,5,5,5,5,5,5,5,1,1,1,1,1,1,1,1,1,1,1,5,1,1,1,1,1,1,1,5,5,5,5,5,2,2,1,1,1,1,0.555452853626639
-11660.9591489547,4,4,5,1,1,2,2,2,3,5,5,5,5,5,5,5,5,5,5,5,5,1,1,1,1,1,1,1,1,1,1,1,5,1,1,1,1,1,1,1,5,5,5,5,5,2,2,1,1,1,1,0.499907568263975
-11641.3329131009,4,4,5,1,1,2,2,3,3,5,5,5,5,5,5,5,5,5,5,5,5,1,1,1,1,1,1,1,1,1,1,1,5,1,1,1,1,1,1,1,5,5,5,5,5,2,2,1,1,1,1,0.449916811437578
-11620.7644965575,4,4,5,1,1,2,2,3,4,5,5,5,5,5,5,5,5,5,5,5,5,1,1,1,1,1,1,1,1,1,1,1,5,1,1,1,1,1,1,1,5,5,5,5,5,2,2,1,1,1,1,0.40492513029382
-11599.2279906797,4,4,5,1,1,2,2,3,4,5,5,5,5,5,5,5,5,5,5,5,5,1,1,1,1,1,1,1,1,1,1,1,5,1,1,1,1,1,1,1,5,5,5,5,5,2,2,1,1,1,1,0.364432617264438
-11576.6579822208,4,4,5,1,5,2,2,3,4,5,5,5,5,5,5,5,5,5,5,5,5,1,1,1,1,1,1,1,1,1,1,1,5,1,1,1,1,1,1,1,5,5,5,5,5,2,2,1,1,1,1,0.327989355537994
-11552.9646133204,4,4,5,1,5,2,2,3,4,5,5,5,5,5,5,5,5,5,5,5,5,1,1,1,1,1,1,1,1,1,1,5,5,1,1,1,1,1,1,1,5,5,5,5,5,2,2,1,1,1,1,0.295190419984195
-11528.1004883009,4,4,5,1,5,2,2,4,5,5,5,5,5,5,5,5,5,5,5,5,5,1,1,1,1,1,1,1,1,1,1,5,5,1,1,1,1,1,1,1,5,5,5,5,5,2,2,1,1,1,1,0.265671377985775
-11502.0099261942,4,4,5,1,5,5,3,4,5,5,5,5,5,5,5,5,5,5,5,5,5,1,1,1,1,1,1,1,1,1,1,5,5,1,1,1,1,1,1,1,5,5,5,5,5,2,2,1,1,1,1,0.239104240187198
-11474.6475856235,4,4,5,1,5,5,3,4,5,5,5,5,5,5,5,5,5,5,5,5,5,1,1,1,1,1,1,1,1,1,1,5,5,1,1,1,1,1,1,1,5,5,5,5,5,2,2,1,1,1,1,0.215193816168478
-11445.9743471385,4,4,5,1,5,5,3,4,5,5,5,5,5,5,5,5,5,5,5,5,5,1,1,1,1,1,1,1,1,1,1,5,5,1,1,1,1,1,1,1,5,5,5,5,5,2,2,1,1,1,1,0.19367443455163
-11415.952467681,4,4,5,1,5,5,3,4,5,5,5,5,5,5,5,5,5,5,5,5,5,1,1,1,1,1,1,1,1,1,1,5,5,1,1,1,1,1,1,1,5,5,5,5,5,2,2,1,1,1,1,0.174306991096467
-11384.5386596997,4,4,5,1,5,5,3,5,5,5,5,5,5,5,5,5,5,5,5,5,5,1,1,1,1,1,1,1,1,1,5,5,5,1,1,1,1,1,1,1,5,5,5,5,5,2,2,1,1,1,1,0.15687629198682
-11351.6713322093,4,4,5,1,5,5,5,5,5,5,5,5,5,5,5,5,5,5,5,5,5,1,1,1,1,1,1,1,1,1,5,5,5,1,1,1,1,1,1,1,5,5,5,5,5,2,2,1,1,1,1,0.141188662788138
-11315.8478013708,4,4,5,1,5,5,5,5,5,5,5,5,5,5,5,5,5,5,5,5,5,5,1,1,1,1,1,1,1,1,5,5,5,1,1,1,1,1,1,1,5,5,5,5,5,2,2,1,1,1,1,0.127069796509325
-11278.5288471915,4,4,5,1,5,5,5,5,5,5,5,5,5,5,5,5,5,5,5,5,5,5,1,1,1,1,1,1,1,5,5,5,5,1,1,1,1,1,1,1,5,5,5,5,5,2,2,1,1,1,1,0.114362816858392
-11239.7013625317,4,4,5,1,5,5,5,5,5,5,5,5,5,5,5,5,5,5,5,5,5,5,1,1,1,1,1,1,1,5,5,5,5,1,1,1,1,1,1,1,5,5,5,5,5,2,2,1,1,1,1,0.102926535172553
-11199.3133246709,4,4,5,1,5,5,5,5,5,5,5,5,5,5,5,5,5,5,5,5,5,5,1,1,1,1,1,1,5,5,5,5,5,1,1,1,1,1,1,1,5,5,5,5,5,2,2,1,1,1,1,0.0926338816552977
-11157.318192123,4,4,5,5,5,5,5,5,5,5,5,5,5,5,5,5,5,5,5,5,5,5,1,1,1,1,1,1,5,5,5,5,5,1,1,1,1,1,1,1,5,5,5,5,5,2,2,1,1,1,1,0.0833704934897679
-11113.6173693713,4,4,5,5,5,5,5,5,5,5,5,5,5,5,5,5,5,5,5,5,5,5,1,1,1,1,1,1,5,5,5,5,5,1,1,1,1,1,1,1,5,5,5,5,5,2,2,1,1,1,1,0.0750334441407911
-11068.1082838068,4,4,5,5,5,5,5,5,5,5,5,5,5,5,5,5,5,5,5,5,5,5,1,1,1,1,1,5,5,5,5,5,5,1,1,1,1,1,1,1,5,5,5,5,5,2,2,1,1,1,1,0.067530099726712
-11020.7222934099,4,4,5,5,5,5,5,5,5,5,5,5,5,5,5,5,5,5,5,5,5,5,1,1,1,1,1,5,5,5,5,5,5,1,1,1,1,1,1,1,5,5,5,5,5,2,2,1,1,1,1,0.0607770897540408
-10971.3486933643,4,4,5,5,5,5,5,5,5,5,5,5,5,5,5,5,5,5,5,5,5,5,1,1,1,1,1,5,5,5,5,5,5,1,1,1,1,1,1,1,5,5,5,5,5,2,2,1,1,1,1,0.0546993807786367
-10919.7690453903,4,4,5,5,5,5,5,5,5,5,5,5,5,5,5,5,5,5,5,5,5,5,1,1,1,1,1,5,5,5,5,5,5,1,1,1,1,1,1,1,5,5,5,5,5,2,2,1,1,1,1,0.049229442700773
-10865.8090444819,4,4,5,5,5,5,5,5,5,5,5,5,5,5,5,5,5,5,5,5,5,5,1,1,1,1,5,5,5,5,5,5,5,1,1,1,1,1,1,5,5,5,5,5,5,2,2,1,1,1,1,0.0443064984306957
-10809.4332750068,4,4,5,5,5,5,5,5,5,5,5,5,5,5,5,5,5,5,5,5,5,5,1,1,1,1,5,5,5,5,5,5,5,1,1,1,1,1,1,5,5,5,5,5,5,2,2,1,1,1,1,0.0398758485876262
-10750.4487820856,4,4,5,5,5,5,5,5,5,5,5,5,5,5,5,5,5,5,5,5,5,5,1,1,1,1,5,5,5,5,5,5,5,5,1,1,1,1,1,5,5,5,5,5,5,2,2,1,1,1,1,0.0358882637288636
-10688.6318041675,4,4,5,5,5,5,5,5,5,5,5,5,5,5,5,5,5,5,5,5,5,5,1,1,1,1,5,5,5,5,5,5,5,5,1,1,1,1,1,5,5,5,5,5,5,2,2,1,1,1,1,0.0322994373559772
-10623.7235094675,4,4,5,5,5,5,5,5,5,5,5,5,5,5,5,5,5,5,5,5,5,5,1,1,1,1,5,5,5,5,5,5,5,5,1,1,1,1,1,5,5,5,5,5,5,2,2,1,1,1,1,0.0290694936203795
-10555.4260745586,4,4,5,5,5,5,5,5,5,5,5,5,5,5,5,5,5,5,5,5,5,5,1,1,1,1,5,5,5,5,5,5,5,5,1,1,1,1,1,5,5,5,5,5,5,2,2,1,1,1,1,0.0261625442583415
-10482.3486852498,4,4,5,5,5,5,5,5,5,5,5,5,5,5,5,5,5,5,5,5,5,5,1,1,1,1,5,5,5,5,5,5,5,5,1,1,1,1,1,5,5,5,5,5,5,2,2,1,1,1,1,0.0235462898325074
-10400.7370700634,4,4,5,5,5,5,5,5,5,5,5,5,5,5,5,5,5,5,5,5,5,5,4,1,1,5,5,5,5,5,5,5,5,5,1,1,1,1,1,5,5,5,5,5,5,3,2,1,1,1,1,0.0211916608492566
-10314.5098903607,4,4,5,5,5,5,5,5,5,5,5,5,5,5,5,5,5,5,5,5,5,5,4,1,1,5,5,5,5,5,5,5,5,5,1,1,1,1,1,5,5,5,5,5,5,3,2,1,1,1,1,0.019072494764331
-10223.1314709544,4,4,5,5,5,5,5,5,5,5,5,5,5,5,5,5,5,5,5,5,5,5,4,1,1,5,5,5,5,5,5,5,5,5,1,1,1,1,1,5,5,5,5,5,5,3,2,1,1,1,1,0.0171652452878979
-10125.9959764364,4,4,5,5,5,5,5,5,5,5,5,5,5,5,5,5,5,5,5,5,5,5,4,1,1,5,5,5,5,5,5,5,5,5,1,1,1,1,1,5,5,5,5,5,5,3,2,1,1,1,1,0.0154487207591081
-10022.425402994,4,4,5,5,5,5,5,5,5,5,5,5,5,5,5,5,5,5,5,5,5,5,4,1,1,5,5,5,5,5,5,5,5,5,1,1,1,1,1,5,5,5,5,5,5,4,2,1,1,1,1,0.0139038486831973
-9911.64481306887,4,4,5,5,5,5,5,5,5,5,5,5,5,5,5,5,5,5,5,5,5,5,4,1,1,5,5,5,5,5,5,5,5,5,1,1,1,1,1,5,5,5,5,5,5,4,2,1,1,1,1,0.0125134638148776
-9792.68684816435,4,4,5,5,5,5,5,5,5,5,5,5,5,5,5,5,5,5,5,5,5,5,5,1,1,5,5,5,5,5,5,5,5,5,2,1,1,1,1,5,5,5,5,5,5,4,2,1,1,1,1,0.0112621174333898
-9664.50123583294,1,4,5,5,5,5,5,5,5,5,5,5,5,5,5,5,5,5,5,5,5,5,5,1,1,5,5,5,5,5,5,5,5,5,2,1,1,1,1,5,5,5,5,5,5,4,2,1,1,1,1,0.0101359056900508
-9526.33935931115,1,4,5,5,5,5,5,5,5,5,5,5,5,5,5,5,5,5,5,5,5,5,5,1,1,5,5,5,5,5,5,5,5,5,2,1,1,1,1,5,5,5,5,5,5,4,2,2,1,1,1,0.00912231512104574
-9377.13355654525,1,5,5,5,5,5,5,5,5,5,5,5,5,5,5,5,5,5,5,5,5,5,5,1,1,5,5,5,5,5,5,5,5,5,2,1,1,1,1,5,5,5,5,5,5,5,2,2,1,1,1,0.00821008360894116
-9213.81419926425,1,5,5,5,5,5,5,5,5,5,5,5,5,5,5,5,5,5,5,5,5,5,5,1,1,5,5,5,5,5,5,5,5,5,2,1,1,1,1,5,5,5,5,5,5,5,2,2,1,1,1,0.00738907524804705
-9030.83627195203,1,5,5,5,5,5,5,5,5,5,5,5,5,5,5,5,5,5,5,5,5,5,5,2,1,5,5,5,5,5,5,5,5,5,2,1,1,1,1,5,5,5,5,5,5,5,2,2,1,1,1,0.00665016772324234
-8832.72269705125,1,5,5,5,5,5,5,5,5,5,5,5,5,5,5,5,5,5,5,5,5,5,5,2,1,5,5,5,5,5,5,5,5,5,3,1,1,1,1,5,5,5,5,5,5,5,2,2,1,1,1,0.00598515095091811
-8617.96942728768,1,5,5,5,5,5,5,5,5,5,5,4,5,5,5,5,5,5,5,5,5,5,5,2,1,5,5,5,5,5,5,5,5,5,3,1,1,1,1,5,5,5,5,5,5,5,2,2,1,1,1,0.0053866358558263
-8385.46793781337,1,5,5,5,5,5,5,4,5,5,5,4,5,5,5,5,5,5,5,5,5,5,5,2,1,5,5,5,5,5,5,5,5,5,3,1,1,1,5,5,5,5,5,5,5,5,2,2,1,1,1,0.00484797227024367
-8134.05943355184,1,5,5,5,5,5,5,4,5,5,5,4,5,5,5,5,5,5,5,5,5,5,5,2,1,5,5,5,5,5,5,5,5,5,3,2,1,1,5,5,5,5,5,5,5,5,2,2,1,1,1,0.0043631750432193
-7862.23186462022,1,5,5,5,5,5,5,4,5,5,5,4,5,5,5,5,5,5,5,5,5,5,5,2,1,5,5,5,5,5,5,5,5,5,3,2,1,1,5,5,5,5,5,5,5,5,2,2,1,1,1,0.00392685753889737
-7567.13934692676,1,5,5,5,5,5,5,4,5,5,4,3,5,5,5,5,5,5,5,5,5,5,4,2,1,5,5,5,5,5,5,5,5,5,4,2,1,1,5,5,5,5,5,5,5,5,2,2,1,1,1,0.00353417178500764
-7250.05932219831,1,5,5,5,5,5,5,4,5,5,4,3,5,5,5,5,5,5,5,5,5,5,4,2,1,5,5,5,5,5,5,5,5,5,4,2,1,1,5,5,5,5,5,5,5,5,2,2,2,1,1,0.00318075460650687
-6909.16479877862,1,5,5,5,5,5,5,4,5,5,4,3,5,5,5,5,5,5,5,5,5,5,4,2,1,5,5,5,5,5,5,5,5,5,4,2,1,1,5,5,5,5,5,5,5,5,2,2,2,1,1,0.00286267914585619
-6537.62869692843,1,5,5,5,5,5,5,4,5,5,4,3,5,5,5,5,5,5,5,5,5,5,4,2,1,5,5,5,5,5,5,5,5,5,4,2,1,1,5,5,5,5,5,5,5,5,2,2,2,1,1,0.00257641123127057
-6135.61002949483,1,5,5,5,5,5,5,4,5,5,3,2,5,5,5,5,5,5,5,5,5,5,4,2,2,5,5,5,5,5,5,5,5,5,4,2,1,1,5,5,5,5,5,5,5,5,3,2,2,1,1,0.00231877010814351
-5705.88972607763,1,5,5,5,5,5,5,4,4,5,3,2,5,5,5,5,5,5,5,5,5,5,4,2,2,5,5,5,5,5,5,5,5,5,4,2,2,1,5,5,5,5,5,5,5,5,3,2,2,1,1,0.00208689309732916
-5246.42846527097,1,5,5,5,5,5,5,3,4,5,3,2,5,5,5,5,5,5,5,5,5,5,4,2,2,5,5,5,5,5,5,5,5,5,4,2,2,1,5,5,5,5,5,5,5,5,3,2,2,1,1,0.00187820378759624
-4755.31399618613,1,5,5,5,5,5,5,3,4,5,3,2,5,5,5,5,5,5,5,5,5,5,4,2,2,5,5,5,5,5,5,5,5,5,4,2,2,1,5,5,5,5,5,5,5,5,3,2,2,1,1,0.00169038340883662
-4230.23863281684,1,5,5,5,5,5,5,3,4,4,3,2,5,5,5,5,5,5,5,5,5,5,4,2,2,5,5,5,5,5,5,5,5,5,4,2,2,1,5,5,5,5,5,5,5,5,3,2,2,2,1,0.00152134506795296
-3672.27488033876,1,5,5,5,5,5,5,3,4,4,3,2,5,5,5,5,5,5,5,5,5,5,4,2,2,5,5,5,5,5,5,5,5,5,5,2,2,1,5,5,5,5,5,5,5,5,4,2,2,2,1,0.00136921056115766
-3088.17543113468,1,5,5,5,5,5,5,3,4,4,3,2,5,5,5,5,5,5,5,5,5,5,4,2,2,5,5,5,5,5,5,5,5,5,5,2,2,1,5,5,5,5,5,5,5,5,4,2,2,2,1,0.0012322895050419
-2496.69029749353,1,4,5,5,5,5,5,3,4,4,3,2,5,5,5,5,5,5,5,5,5,5,4,2,2,5,5,5,5,5,5,5,5,5,5,2,2,1,5,5,5,5,5,5,5,5,4,2,2,2,1,0.00110906055453771
-1936.63928589727,1,1,5,5,5,5,5,3,3,4,3,2,5,5,5,5,5,5,5,5,5,5,4,2,2,5,5,5,5,5,5,5,5,5,5,2,2,2,5,5,5,5,5,5,5,5,4,2,2,2,1,0.000998154499083935
-1456.90250428981,1,1,5,5,5,5,5,2,3,4,3,2,5,5,5,5,5,5,5,5,5,5,4,2,2,5,5,5,5,5,5,5,5,5,5,2,2,2,5,5,5,5,5,5,5,5,4,2,2,2,1,0.000898339049175542
-1086.9800439143,1,1,5,5,5,5,5,2,3,4,2,2,5,5,5,5,5,5,5,5,5,5,4,2,2,5,5,5,5,5,5,5,5,5,5,2,2,2,5,5,5,5,5,5,5,5,4,2,2,2,1,0.000808505144257988
-821.291554144991,1,1,4,5,5,5,5,2,3,4,2,2,5,5,5,5,5,5,5,5,5,5,4,2,2,5,5,5,5,5,5,5,5,5,4,2,2,2,5,5,5,5,5,5,5,5,4,2,2,2,2,0.000727654629832189
-635.950011637898,1,1,3,5,5,5,5,2,3,4,2,2,5,5,5,5,5,5,5,5,5,5,4,2,2,5,5,5,5,5,5,5,5,5,4,2,2,2,5,5,5,5,5,5,5,5,4,2,2,2,2,0.00065488916684897
-504.971004631525,1,1,1,4,5,5,5,2,2,3,2,2,5,5,5,5,5,5,5,5,5,5,4,2,2,5,5,5,5,5,5,5,5,5,4,2,2,2,5,5,5,5,5,5,5,5,4,2,2,2,2,0.000589400250164073
-412.176425571716,1,1,1,4,5,5,5,2,2,3,2,2,5,5,5,5,5,5,5,5,5,5,4,2,2,5,5,5,5,5,5,5,5,5,4,2,2,2,5,5,5,5,5,5,5,5,4,2,2,2,2,0.000530460225147666
-345.260208386721,1,1,1,4,5,5,5,2,2,3,2,2,5,5,5,5,5,5,5,5,5,4,4,2,2,5,5,5,5,5,5,5,5,5,4,2,2,2,5,5,5,5,5,5,5,5,4,2,2,2,2,0.000477414202632899
-295.70639262836,1,1,1,3,4,5,5,2,2,3,2,2,5,5,5,5,5,5,5,5,5,4,4,2,2,5,5,5,5,5,5,5,5,5,4,2,2,2,5,5,5,5,5,5,5,5,4,2,2,2,2,0.000429672782369609
-257.279479803167,1,1,1,3,4,5,4,2,2,2,2,2,5,5,5,5,5,5,5,5,5,4,4,2,2,5,5,5,5,5,5,5,5,5,4,2,2,2,5,5,5,5,5,5,5,5,4,2,2,2,2,0.000386705504132648
-227.310931485369,1,1,1,3,4,5,2,2,2,2,2,2,5,5,5,5,5,5,5,5,5,4,3,2,2,5,5,5,5,5,5,5,5,5,4,2,2,2,5,5,5,5,5,5,5,5,4,2,2,2,2,0.000348034953719383
-203.676194866795,1,1,1,3,4,4,2,2,2,2,2,2,5,5,5,5,5,5,5,5,5,4,3,2,2,5,5,5,5,5,5,5,5,5,4,2,2,2,5,5,5,5,5,5,5,5,4,2,2,2,2,0.000313231458347445
-184.691800274646,1,1,1,2,4,4,2,2,2,2,2,2,5,5,5,5,5,5,5,5,5,4,3,2,2,5,5,5,5,5,5,5,5,5,4,2,2,2,5,5,5,5,5,5,5,5,4,2,2,2,2,0.000281908312512701
-169.192866239949,1,1,1,2,4,4,2,2,2,2,2,2,5,5,5,5,5,5,5,5,5,4,3,2,2,5,5,5,5,5,5,5,5,5,4,2,2,2,5,5,5,5,5,5,5,5,4,2,2,2,2,0.000253717481261431
-156.363145671821,1,1,1,2,3,4,2,2,2,2,2,2,5,5,5,5,5,5,5,5,5,4,3,2,2,5,5,5,5,5,5,5,5,5,4,2,2,2,5,5,5,5,5,5,5,5,4,2,2,2,2,0.000228345733135288
-145.613429312867,1,1,1,2,3,3,2,2,2,2,2,2,5,5,5,5,5,5,5,5,5,4,3,2,2,5,5,5,5,5,5,5,5,5,4,2,2,2,5,5,5,5,5,5,5,5,3,2,2,2,2,0.000205511159821759
-136.517355713522,1,1,1,2,3,3,2,2,2,2,2,2,5,5,5,5,5,5,5,5,4,4,3,2,2,5,5,5,5,5,5,5,5,5,4,2,2,2,5,5,5,5,5,5,5,5,3,2,2,2,2,0.000184960043839583
-128.745015342815,1,1,1,2,3,3,2,2,2,2,2,2,5,5,5,5,5,5,5,5,4,4,3,2,2,5,5,5,5,5,5,5,5,5,4,2,2,2,5,5,5,5,5,5,5,5,3,2,2,2,2,0.000166464039455625
-122.04454702765,1,1,1,2,3,3,2,2,2,2,2,2,5,5,5,5,5,5,5,5,4,4,3,2,2,5,5,5,5,5,5,5,5,5,4,2,2,2,5,5,5,5,5,5,5,5,3,2,2,2,2,0.000149817635510062
-116.247892346842,1,1,1,1,3,3,2,2,2,2,2,2,5,5,5,5,5,5,5,5,4,4,3,2,2,5,5,5,5,5,5,5,5,5,4,2,2,2,5,5,5,5,5,5,5,5,3,2,2,2,2,0.000134835871959056
-111.231053487871,1,1,1,1,3,3,2,2,2,2,2,2,5,5,5,5,5,5,5,5,4,4,3,2,2,5,5,5,5,5,5,5,5,5,4,2,2,2,5,5,5,5,5,5,5,5,3,2,2,2,2,0.00012135228476315
-106.866887294676,1,1,1,1,3,3,2,2,2,2,2,2,5,5,5,5,5,5,5,5,4,4,3,2,2,5,5,5,5,5,5,5,5,5,4,2,2,2,5,5,5,5,5,5,5,5,3,2,2,2,2,0.000109217056286835
-103.053097785046,1,1,1,1,3,3,2,2,2,2,2,2,5,5,5,5,5,5,5,5,4,4,3,2,2,5,5,5,5,5,5,5,5,5,4,2,2,2,5,5,5,5,5,5,5,5,3,2,2,2,2,9.82953506581518e-05
-99.7080148690602,1,1,1,1,2,3,2,2,2,2,2,2,5,5,5,5,5,5,5,5,4,4,3,2,2,5,5,5,5,5,5,5,5,5,4,2,2,2,5,5,5,5,5,5,5,5,3,2,2,2,2,8.84658155923366e-05
-96.7647422130361,1,1,1,1,2,3,2,2,2,2,2,2,5,5,5,5,5,5,5,5,4,4,3,2,2,5,5,5,5,5,5,5,5,5,3,2,2,2,5,5,5,5,5,5,5,5,3,2,2,2,2,7.9619234033103e-05
-94.1664076562169,1,1,1,1,2,3,2,2,2,2,2,2,5,5,5,5,5,5,5,5,4,4,3,2,2,5,5,5,5,5,5,5,5,5,3,2,2,2,5,5,5,5,5,5,5,5,3,2,2,2,2,7.16573106297927e-05
-91.8670960185962,1,1,1,1,2,2,2,2,2,2,2,2,5,5,5,5,5,5,5,5,4,4,3,2,2,5,5,5,5,5,5,5,5,5,3,2,2,2,5,5,5,5,5,5,5,5,3,2,2,2,2,6.44915795668134e-05
-89.8266960172238,1,1,1,1,2,2,2,2,2,2,2,2,5,5,5,5,5,5,5,5,4,4,3,2,2,5,5,5,5,5,5,5,5,5,3,2,2,2,5,5,5,5,5,5,5,5,3,2,2,2,2,5.80424216101321e-05
-88.010908574926,1,1,1,1,2,2,2,2,2,2,2,2,5,5,5,5,5,5,5,5,4,4,3,2,2,5,5,5,5,5,5,5,5,5,3,2,2,2,5,5,5,5,5,5,5,5,3,2,2,2,2,5.22381794491189e-05
-86.3904179940634,1,1,1,1,2,2,2,2,2,2,2,2,5,5,5,5,5,5,5,5,4,4,3,2,2,5,5,5,5,5,5,5,5,5,3,2,2,2,5,5,5,5,5,5,5,5,3,2,2,2,2,4.7014361504207e-05
-84.9399936032558,1,1,1,1,2,2,2,2,2,2,2,2,5,5,5,5,5,5,5,5,4,4,3,2,2,5,5,5,5,5,5,5,5,5,3,2,2,2,5,5,5,5,5,5,5,5,3,2,2,2,2,4.23129253537863e-05
-83.6378516557558,1,1,1,1,2,2,2,2,2,2,2,2,5,5,5,5,5,5,5,5,4,4,3,2,2,5,5,5,5,5,5,5,5,5,3,2,2,2,5,5,5,5,5,5,5,5,3,2,2,2,2,3.80816328184077e-05
-82.4656067944635,1,1,1,1,2,2,2,2,2,2,2,2,5,5,5,5,5,5,5,5,4,3,3,2,2,5,5,5,5,5,5,5,5,5,3,2,2,2,5,5,5,5,5,5,5,5,3,2,2,2,2,3.42734695365669e-05
-81.4075810568913,1,1,1,1,2,2,2,2,2,2,2,2,5,5,5,5,5,5,5,5,4,3,3,2,2,5,5,5,5,5,5,5,5,5,3,2,2,2,5,5,5,5,5,5,5,5,3,2,2,2,2,3.08461225829102e-05
-80.4491591485778,1,1,1,1,2,2,2,2,2,2,2,2,5,5,5,5,5,5,5,5,4,3,3,2,2,5,5,5,5,5,5,5,5,5,3,2,2,2,5,5,5,5,5,5,5,5,3,2,2,2,2,2.77615103246192e-05
-79.5774130867541,1,1,1,1,2,2,2,2,2,2,2,2,5,5,5,5,5,5,5,5,4,3,3,2,2,5,5,5,5,5,5,5,5,5,3,2,2,2,5,5,5,5,5,5,5,5,3,2,2,2,2,2.49853592921573e-05
-78.7808376541896,1,1,1,1,2,2,2,2,2,2,2,2,5,5,5,5,5,5,5,5,4,3,3,2,2,5,5,5,5,5,5,5,5,5,3,2,2,2,5,5,5,5,5,5,5,5,3,2,2,2,2,2.24868233629415e-05
-78.0491276725041,1,1,1,1,2,2,2,2,2,2,2,2,5,5,5,5,5,5,5,5,4,3,3,2,2,5,5,5,5,5,5,5,5,5,3,2,2,2,5,5,5,5,5,5,5,5,3,2,2,2,2,2.02381410266474e-05
-77.372988793711,1,1,1,1,2,2,2,2,2,2,2,2,5,5,5,5,5,5,5,5,4,3,3,2,2,5,5,5,5,5,5,5,5,5,3,2,2,2,5,5,5,5,5,5,5,5,3,2,2,2,2,1.82143269239826e-05
-76.7439752499255,1,1,1,1,2,2,2,2,2,2,2,2,5,5,5,5,5,5,5,5,4,3,3,2,2,5,5,5,5,5,5,5,5,5,3,2,2,2,5,5,5,5,5,5,5,5,3,2,2,2,2,1.63928942315844e-05
-76.1543493304888,1,1,1,1,2,2,2,2,2,2,2,2,5,5,5,5,5,5,5,5,4,3,3,2,2,5,5,5,5,5,5,5,5,5,3,2,2,2,5,5,5,5,5,5,5,5,3,2,2,2,2,1.47536048084259e-05
-75.5969583768143,1,1,1,1,2,2,2,2,2,2,2,2,5,5,5,5,5,5,5,5,4,3,3,2,2,5,5,5,5,5,5,5,5,5,3,2,2,2,5,5,5,5,5,5,5,5,3,2,2,2,2,1.32782443275833e-05
-75.0651258736205,1,1,1,1,2,2,2,2,2,2,2,2,5,5,5,5,5,5,5,5,4,3,3,2,2,5,5,5,5,5,5,5,5,5,3,2,2,2,5,5,5,5,5,5,5,5,3,2,2,2,2,1.1950419894825e-05
-74.5525538260999,1,1,1,1,2,2,2,2,2,2,2,2,5,5,5,5,5,5,5,5,4,3,3,2,2,5,5,5,5,5,5,5,5,5,3,2,2,2,5,5,5,5,5,5,5,5,3,2,2,2,2,1.07553779053425e-05
-74.053234087775,1,1,1,1,2,2,2,2,2,2,2,2,5,5,5,5,5,5,5,5,4,3,3,2,2,5,5,5,5,5,5,5,5,5,3,2,2,2,5,5,5,5,5,5,5,5,3,2,2,2,2,9.67984011480826e-06
-73.5613666735865,1,1,1,1,2,2,2,2,2,2,2,2,5,5,5,5,5,5,5,5,4,3,3,2,2,5,5,5,5,5,5,5,5,5,3,2,2,2,5,5,5,5,5,5,5,5,3,2,2,2,2,8.71185610332744e-06
-73.0712833802752,1,1,1,1,2,2,2,2,2,2,2,2,5,5,5,5,5,5,5,5,4,3,3,2,2,5,5,5,5,5,5,5,5,5,3,2,2,2,5,5,5,5,5,5,5,5,3,2,2,2,2,7.84067049299469e-06
-72.5773752595884,1,1,1,1,2,2,2,2,2,2,2,2,5,5,5,5,5,5,5,5,4,3,3,2,2,5,5,5,5,5,5,5,5,5,3,2,2,2,5,5,5,5,5,5,5,5,3,2,2,2,2,7.05660344369522e-06
-72.0740226610095,1,1,1,1,2,2,2,2,2,2,2,2,5,5,5,5,5,5,5,5,4,3,3,2,2,5,5,5,5,5,5,5,5,5,3,2,2,2,5,5,5,5,5,5,5,5,3,2,2,2,2,6.3509430993257e-06
-71.555526692073,1,1,1,1,2,2,2,2,2,2,2,2,5,5,5,5,5,5,5,5,4,3,3,2,2,5,5,5,5,5,5,5,5,5,3,2,2,2,5,5,5,5,5,5,5,5,3,2,2,2,2,5.71584878939313e-06
-71.0160410407836,1,1,1,1,2,2,2,2,2,2,2,2,5,5,5,5,5,5,5,5,4,3,3,2,2,5,5,5,5,5,5,5,5,5,3,2,2,2,5,5,5,5,5,5,5,5,3,2,2,2,2,5.14426391045382e-06
-70.4495031747839,1,1,1,1,2,2,2,2,2,2,2,2,5,5,5,5,5,5,5,5,4,3,3,2,2,5,5,5,5,5,5,5,5,5,3,2,2,2,5,5,5,5,5,5,5,5,3,2,2,2,2,4.62983751940844e-06
-69.8495639769174,1,1,1,1,2,2,2,2,2,2,2,2,5,5,5,5,5,5,5,5,4,3,3,2,2,5,5,5,5,5,5,5,5,5,3,2,2,2,5,5,5,5,5,5,5,5,3,2,2,2,2,4.16685376746759e-06
-69.2095148962845,1,1,1,1,2,2,2,2,2,2,2,2,5,5,5,5,5,5,5,5,4,3,3,2,2,5,5,5,5,5,5,5,5,5,3,2,2,2,5,5,5,5,5,5,5,5,3,2,2,2,2,3.75016839072083e-06
-68.5222116760295,1,1,1,1,2,2,2,2,2,2,2,2,5,5,5,5,5,5,5,5,4,3,3,2,2,5,5,5,5,5,5,5,5,5,3,2,2,2,5,5,5,5,5,5,5,5,3,2,2,2,2,3.37515155164875e-06
-67.7799936265255,1,1,1,1,2,2,2,2,2,2,2,2,5,5,5,5,5,5,5,5,4,3,3,2,2,5,5,5,5,5,5,5,5,5,3,2,2,2,5,5,5,5,5,5,5,5,3,2,2,2,2,3.03763639648388e-06
-66.974596963945,1,1,1,1,2,2,2,2,2,2,2,2,5,5,5,5,5,5,5,5,4,3,3,2,2,5,5,5,5,5,5,5,5,5,3,2,2,2,5,5,5,5,5,5,5,5,3,2,2,2,2,2.73387275683549e-06
-66.0970620647232,1,1,1,1,2,2,2,2,2,2,2,2,5,5,5,5,5,5,5,5,4,3,3,2,2,5,5,5,5,5,5,5,5,5,3,2,2,2,5,5,5,5,5,5,5,5,3,2,2,2,2,2.46048548115194e-06
-65.1376666249208,1,1,1,1,2,2,2,2,2,2,2,2,5,5,5,5,5,5,5,4,4,3,3,2,2,5,5,5,5,5,5,5,5,5,3,2,2,2,5,5,5,5,5,5,5,5,3,2,2,2,2,2.21443693303675e-06
-64.0858970962382,1,1,1,1,2,2,2,2,2,2,2,2,5,5,5,5,5,5,5,4,4,3,3,2,2,5,5,5,5,5,5,5,5,5,3,2,2,2,5,5,5,5,5,5,5,5,3,2,2,2,2,1.99299323973307e-06
-62.9301159856977,1,1,1,1,2,2,2,2,2,2,2,2,5,5,5,5,5,5,5,4,4,3,3,2,2,5,5,5,5,5,5,5,5,5,3,2,2,2,5,5,5,5,5,5,5,5,3,2,2,2,2,1.79369391575976e-06
-61.6575625042516,1,1,1,1,2,2,2,2,2,2,2,2,5,5,5,5,5,5,5,4,4,3,3,2,2,5,5,5,5,5,5,5,5,5,3,2,2,2,5,5,5,5,5,5,5,5,3,2,2,2,2,1.61432452418379e-06
-60.2542260428495,1,1,1,1,2,2,2,2,2,2,2,2,5,5,5,5,5,5,5,4,4,3,3,2,2,5,5,5,5,5,5,5,5,5,3,2,2,2,5,5,5,5,5,5,5,5,3,2,2,2,2,1.45289207176541e-06
-58.7047138876854,1,1,1,1,2,2,2,2,2,2,2,2,5,5,5,5,5,5,5,4,4,3,3,2,2,5,5,5,5,5,5,5,5,5,3,2,2,2,5,5,5,5,5,5,5,5,3,2,2,2,2,1.30760286458887e-06
-56.9921158388716,1,1,1,1,2,2,2,2,2,2,2,2,5,5,5,5,5,5,5,4,4,3,3,2,2,5,5,5,5,5,5,5,5,5,3,2,2,2,5,5,5,5,5,5,5,5,3,2,2,2,2,1.17684257812998e-06
-55.0978705133963,1,1,1,1,2,2,2,2,2,2,2,2,5,5,5,5,5,5,5,4,4,3,3,2,2,5,5,5,5,5,5,5,5,5,3,2,2,2,5,5,5,5,5,5,5,5,3,2,2,2,2,1.05915832031698e-06
-53.0016413817381,1,1,1,1,2,2,2,2,2,2,2,2,5,5,5,5,5,5,5,4,4,3,3,2,2,5,5,5,5,5,5,5,5,5,3,2,2,2,5,5,5,5,5,5,5,5,3,2,2,2,2,9.53242488285285e-07
-50.6812156415321,1,1,1,1,2,2,2,2,2,2,2,2,5,5,5,5,5,5,5,4,4,3,3,2,2,5,5,5,5,5,5,5,5,5,3,2,2,2,5,5,5,5,5,5,5,5,3,2,2,2,2,8.57918239456756e-07
-48.1124467982526,1,1,1,1,2,2,2,2,2,2,2,2,5,5,5,5,5,5,5,4,4,3,3,2,2,5,5,5,5,5,5,5,5,5,3,2,2,2,5,5,5,5,5,5,5,5,3,2,2,2,2,7.72126415511081e-07
-45.2692737500228,1,1,1,1,2,2,2,2,2,2,2,2,5,5,5,5,5,5,5,4,4,3,3,2,2,5,5,5,5,5,5,5,5,5,3,2,2,2,5,5,5,5,5,5,5,5,3,2,2,2,2,6.94913773959973e-07
-42.1238674740574,1,1,1,1,2,2,2,2,2,2,2,2,5,5,5,5,5,5,5,4,4,3,3,2,2,5,5,5,5,5,5,5,5,5,3,2,2,2,5,5,5,5,5,5,5,5,3,2,2,2,2,6.25422396563975e-07
-38.646984518765,1,1,1,1,2,2,2,2,2,2,2,2,5,5,5,5,5,5,5,4,4,3,3,2,2,5,5,5,5,5,5,5,5,5,3,2,2,2,5,5,5,5,5,5,5,5,3,2,2,2,2,5.62880156907578e-07
-34.8086497606548,1,1,1,1,2,2,2,2,2,2,2,2,5,5,5,5,5,5,5,4,4,3,3,2,2,5,5,5,5,5,5,5,5,5,3,2,2,2,5,5,5,5,5,5,5,5,3,2,2,2,2,5.0659214121682e-07
-30.5793576925112,1,1,1,1,2,2,2,2,2,2,2,2,5,5,5,5,5,5,5,4,4,3,3,2,2,5,5,5,5,5,5,5,5,5,3,2,2,2,5,5,5,5,5,5,5,5,3,2,2,2,2,4.55932927095138e-07
-25.9320852165453,1,1,1,1,2,2,2,2,2,2,2,2,5,5,5,5,5,5,5,4,4,3,3,2,2,5,5,5,5,5,5,5,5,5,3,2,2,2,5,5,5,5,5,5,5,5,3,2,2,2,2,4.10339634385624e-07
-20.8455710628026,1,1,1,1,2,2,2,2,2,2,2,2,5,5,5,5,5,5,5,4,4,3,3,2,2,5,5,5,5,5,5,5,5,5,3,2,2,2,5,5,5,5,5,5,5,5,3,2,2,2,2,3.69305670947062e-07
-15.3095727382174,1,1,1,1,2,2,2,2,2,2,2,2,5,5,5,5,5,5,5,4,4,3,3,2,2,5,5,5,5,5,5,5,5,5,3,2,2,2,5,5,5,5,5,5,5,5,3,2,2,2,2,3.32375103852356e-07
-9.33321962854551,1,1,1,1,2,2,2,2,2,2,2,2,5,5,5,5,5,5,5,4,4,3,3,2,2,5,5,5,5,5,5,5,5,5,3,2,2,2,5,5,5,5,5,5,5,5,3,2,2,2,2,2.9913759346712e-07
-2.95823985666917,1,1,1,1,2,2,2,2,2,2,2,2,5,5,5,5,5,5,5,4,4,3,3,2,2,5,5,5,5,5,5,5,5,5,3,2,2,2,5,5,5,5,5,5,5,5,3,2,2,2,2,2.69223834120408e-07
3.7201075239559,1,1,1,1,2,2,2,2,2,2,2,2,5,5,5,5,5,5,5,4,4,3,3,2,2,5,5,5,5,5,5,5,5,5,3,2,2,2,5,5,5,5,5,5,5,5,3,2,2,2,2,2.42301450708367e-07
10.5194540057373,1,1,1,1,2,2,2,2,2,2,2,2,5,5,5,5,5,5,5,4,4,3,3,2,2,5,5,5,5,5,5,5,5,5,3,2,2,2,5,5,5,5,5,5,5,5,3,2,2,2,2,2.18071305637531e-07
17.1162750462576,1,1,1,1,2,2,2,2,2,2,2,2,5,5,5,5,5,5,5,4,4,4,3,2,2,5,5,5,5,5,5,5,5,5,3,2,2,2,5,5,5,5,5,5,5,5,3,2,2,2,2,1.96264175073778e-07
22.9695377511341,1,1,1,1,2,2,2,2,2,2,2,2,5,5,5,5,5,5,5,4,4,4,3,2,2,5,5,5,5,5,5,5,5,5,4,2,2,2,5,5,5,5,5,5,5,5,3,2,2,2,2,1.766377575664e-07
27.1077236448808,1,1,1,1,1,2,2,2,2,2,2,2,5,5,5,5,5,4,4,4,4,4,3,2,2,5,5,5,5,5,5,5,5,5,4,2,2,2,5,5,5,5,5,5,5,5,4,2,2,2,2,1.5897398180976e-07
27.6989298751481,1,1,1,1,1,2,2,2,2,2,2,2,5,5,5,5,4,4,4,4,3,4,3,2,2,5,5,5,5,5,5,5,5,5,4,2,2,2,5,5,5,5,5,5,5,5,4,2,2,2,2,1.43076583628784e-07
21.6984097513716,1,1,1,1,1,1,1,2,2,2,2,2,5,5,4,4,3,3,3,3,3,4,3,2,2,5,5,5,5,5,5,5,5,5,4,2,2,2,5,5,5,5,5,5,5,5,4,2,2,2,2,1.28768925265905e-07
17.5514735176401,1,1,1,1,1,1,1,1,1,1,1,1,1,2,2,2,2,2,2,2,3,4,4,2,2,5,5,5,5,5,5,5,5,5,4,2,2,2,5,5,5,5,5,5,5,5,5,2,2,2,2,1.15892032739315e-07
-22.9099053317887,1,1,1,1,1,1,1,1,1,1,1,1,1,1,1,1,1,1,1,1,1,1,1,1,1,1,1,1,1,1,1,1,1,4,4,2,1,1,5,5,5,5,5,5,5,5,5,2,2,2,2,1.04302829465383e-07
-73.4640935926349,1,1,1,1,1,1,1,1,1,1,1,1,1,1,1,1,1,1,1,1,1,1,1,1,1,1,1,1,1,1,1,1,1,4,4,2,1,1,5,5,5,5,5,5,5,5,5,2,2,2,2,0
